<?xml version="1.0" encoding="utf-8"?>
<!-- Generator: $$$/GeneralStr/196=Adobe Illustrator 27.6.0, SVG Export Plug-In . SVG Version: 6.00 Build 0)  -->
<svg version="1.1" id="图层_1" xmlns="http://www.w3.org/2000/svg" xmlns:xlink="http://www.w3.org/1999/xlink" x="0px" y="0px"
	 viewBox="0 0 1024 1024" style="enable-background:new 0 0 1024 1024;" xml:space="preserve">
<style type="text/css">
	.st0{fill:#3A3A3A;}
</style>
<g id="Symbols">
	<g id="icon_x2F_menu_x2F_fb">
		<g id="Group">
			<path id="Shape" class="st0" d="M642.9,1023.9H428.7V678.6h-45.2c-27.6,0-50-22.4-50-50v-90.5c0-27.6,22.4-50,50-50h45.2v-119
				c0.1-98.6,80-178.4,178.6-178.6h128.6c27.6,0,50,22.4,50,50v114.3c0,27.6-22.4,50-50,50h-92.8v83.3h89.5
				c14.9,0,29.1,6.6,38.6,18.2s13.3,26.7,10.5,41.4l-18.1,90.5c-4.8,23.3-25.3,39.9-49,40h-71.4V1023.9z M404.9,559.6v47.6h95.2
				v345.2h71.4V607.2h125.7l9.5-47.6H572V383.4c0-27.6,22.4-50,50-50h92.8V262H607.2c-59.1,0.1-107.1,48-107.1,107.1v190.5H404.9z"
				/>
			<path id="Shape_00000142178006797601104550000017800542816374893491_" class="st0" d="M654.8,1023.9H369.2
				c-258.6,0-369-110.4-369-369V369.2c0-258.6,110.4-369,369-369h285.7c258.6,0,369,110.4,369,369v285.7
				C1023.9,913.5,913.5,1023.9,654.8,1023.9z M369.2,71.6c-219.7,0-297.6,77.9-297.6,297.6v285.7c0,219.7,77.9,297.6,297.6,297.6
				h285.7c219.7,0,297.6-77.9,297.6-297.6V369.2c0-219.7-77.8-297.6-297.6-297.6H369.2z"/>
		</g>
	</g>
</g>
</svg>
