<?xml version="1.0" encoding="utf-8"?>
<!-- Generator: $$$/GeneralStr/196=Adobe Illustrator 27.6.0, SVG Export Plug-In . SVG Version: 6.00 Build 0)  -->
<svg version="1.1" id="图层_1" xmlns="http://www.w3.org/2000/svg" xmlns:xlink="http://www.w3.org/1999/xlink" x="0px" y="0px"
	 viewBox="0 0 1024 1024" style="enable-background:new 0 0 1024 1024;" xml:space="preserve">
<g id="Symbols">
	<g id="Icon_x2F_more" transform="translate(0.000000, -12.000000)">
		<g id="Group" transform="translate(0.000000, 12.000000)">
			<path id="Path" d="M0,512c0,42.7,21.7,82.1,56.9,103.5c35.2,21.3,78.6,21.3,113.8,0c35.2-21.3,56.9-60.8,56.9-103.5
				s-21.7-82.1-56.9-103.5c-35.2-21.3-78.6-21.3-113.8,0C21.7,429.9,0,469.3,0,512z"/>
			<path id="Path_00000000184143450886921510000000616187988040054183_" d="M398.2,512c0,66,50.9,119.5,113.8,119.5
				S625.8,578,625.8,512c0-42.7-21.7-82.1-56.9-103.5c-35.2-21.3-78.6-21.3-113.8,0S398.2,469.3,398.2,512L398.2,512z"/>
			<path id="Path_00000086692636639919225080000016687702213913664662_" d="M796.4,512c0,66,50.9,119.5,113.8,119.5
				S1024,578,1024,512s-50.9-119.5-113.8-119.5S796.4,446,796.4,512L796.4,512z"/>
		</g>
	</g>
</g>
</svg>
