<?xml version="1.0" encoding="utf-8"?>
<!-- Generator: $$$/GeneralStr/196=Adobe Illustrator 27.6.0, SVG Export Plug-In . SVG Version: 6.00 Build 0)  -->
<svg version="1.1" id="图层_1" xmlns="http://www.w3.org/2000/svg" xmlns:xlink="http://www.w3.org/1999/xlink" x="0px" y="0px"
	 viewBox="0 0 1024 1024" style="enable-background:new 0 0 1024 1024;" xml:space="preserve">
<style type="text/css">
	.st0{fill:#3A3A3A;}
</style>
<g id="Symbols">
	<g id="info_x2F_問號">
		<g id="Group">
			<path id="Shape" class="st0" d="M7,0"/>
		</g>
	</g>
</g>
<g id="Symbols_00000092441910391576021480000010584193854219022774_">
	<g id="icon_x2F_menu_x2F_robot" transform="translate(0.000000, -1.000000)">
		<g id="robot" transform="translate(0.000000, 1.000000)">
			<path id="Shape_00000160183350991429899480000000048328386647495092_" class="st0" d="M329.2,585.5c0-20.3,16.4-36.7,36.6-36.7
				h36.6c20.2,0,36.6,16.5,36.6,36.7V659c0,20.3-16.4,36.7-36.6,36.7h-36.6c-20.2,0-36.6-16.5-36.6-36.7V585.5z M621.7,548.7
				c-20.2,0-36.6,16.5-36.6,36.7V659c0,20.3,16.4,36.7,36.6,36.7h36.6c20.2,0,36.6-16.5,36.6-36.7v-73.5c0-20.3-16.4-36.7-36.6-36.7
				H621.7z"/>
			<path id="Shape_00000031915551204889134550000011168115002181388976_" class="st0" d="M548.6,171.5
				c28.7-16.6,42.6-50.5,34.1-82.7S545.1,34.4,512,34.4s-62.1,22.3-70.6,54.5c-8.6,32.1,5.4,66,34.1,82.7v120.1H256.1
				c-60.6,0-109.7,49.4-109.7,110.2v477.6c0,60.9,49.1,110.2,109.7,110.2h511.8c60.6,0,109.7-49.4,109.7-110.2V401.8
				c0-60.9-49.1-110.2-109.7-110.2H548.6V171.5z M256.1,365h511.8c20.2,0,36.6,16.5,36.6,36.7v477.6c0,20.3-16.4,36.7-36.6,36.7
				H256.1c-20.2,0-36.6-16.5-36.6-36.7V401.8C219.6,381.5,235.9,365,256.1,365z M0.2,567.1c0-30.4,24.5-55.1,54.8-55.1
				c10.1,0,18.3,8.2,18.3,18.4v257.2c0,10.1-8.2,18.4-18.3,18.4c-30.3,0-54.8-24.7-54.8-55.1V567.1L0.2,567.1z M968.9,512
				c-10.1,0-18.3,8.2-18.3,18.4v257.2c0,10.1,8.2,18.4,18.3,18.4c30.3,0,54.8-24.7,54.8-55.1V567.1
				C1023.8,536.7,999.2,512,968.9,512z"/>
		</g>
	</g>
</g>
</svg>
