<svg width="241" height="90" viewBox="0 0 241 90" fill="none" xmlns="http://www.w3.org/2000/svg">
<g filter="url(#filter0_d_10_169)">
<path d="M118.892 61.68C117.079 61.68 115.288 61.408 113.52 60.864C111.797 60.2747 109.825 58.8693 107.604 56.648L102.708 51.752C100.713 49.712 98.5147 48.216 96.112 47.264C93.7547 46.312 90.7853 45.836 87.204 45.836H85.096V61H76.12V26.456L75.44 20.948H105.564C108.465 20.948 110.732 21.3333 112.364 22.104C114.041 22.8747 115.265 23.8947 116.036 25.164C116.852 26.388 117.373 27.7027 117.6 29.108C117.827 30.5133 117.94 31.8507 117.94 33.12V34.412C117.94 35.4093 117.804 36.52 117.532 37.744C117.26 38.968 116.739 40.1693 115.968 41.348C115.197 42.5267 114.087 43.524 112.636 44.34C111.231 45.156 109.372 45.632 107.06 45.768C107.649 46.0853 108.397 46.584 109.304 47.264C110.211 47.8987 111.14 48.6013 112.092 49.372C113.089 50.1427 113.996 50.8453 114.812 51.48C115.628 52.1147 116.263 52.568 116.716 52.84C118.348 53.792 119.799 54.4493 121.068 54.812C122.337 55.1747 123.38 55.3787 124.196 55.424C125.012 55.4693 125.488 55.492 125.624 55.492L124.264 61C123.856 61.136 123.176 61.272 122.224 61.408C121.272 61.5893 120.161 61.68 118.892 61.68ZM95.296 39.648C97.0187 39.648 98.56 39.6253 99.92 39.58C101.28 39.4893 102.504 39.3987 103.592 39.308C105.587 39.0813 106.969 38.5373 107.74 37.676C108.556 36.7693 108.964 35.6133 108.964 34.208V32.644C108.964 31.1933 108.579 29.9693 107.808 28.972C107.037 27.9747 105.655 27.476 103.66 27.476H85.096V39.308C87.0907 39.444 88.9267 39.5347 90.604 39.58C92.2813 39.6253 93.8453 39.648 95.296 39.648ZM132.433 61V26.456L131.753 20.948H161.877C164.778 20.948 167.045 21.3333 168.677 22.104C170.354 22.8747 171.578 23.8947 172.349 25.164C173.165 26.388 173.686 27.7027 173.913 29.108C174.139 30.5133 174.253 31.8507 174.253 33.12V37.132C174.253 38.1747 174.094 39.3533 173.777 40.668C173.459 41.9373 172.87 43.184 172.009 44.408C171.147 45.5867 169.901 46.584 168.269 47.4C166.637 48.1707 164.506 48.556 161.877 48.556H154.941C152.085 48.556 149.41 48.488 146.917 48.352C144.469 48.216 142.633 48.1027 141.409 48.012V61H132.433ZM141.409 42.028H159.905C161.945 42.028 163.35 41.5293 164.121 40.532C164.891 39.5347 165.277 38.3333 165.277 36.928V32.644C165.277 31.1933 164.891 29.9693 164.121 28.972C163.35 27.9747 161.967 27.476 159.973 27.476H141.409V42.028ZM174.258 61L194.182 21.016H207.578L227.434 61H216.962L212.95 52.364H188.606L184.186 61H174.258ZM191.054 45.7H210.434L201.118 27.136H200.438L191.054 45.7Z" fill="white"/>
<line x1="76" y1="71.5" x2="229" y2="71.5" stroke="white" stroke-width="3"/>
<g clip-path="url(#clip0_10_169)">
<path d="M50.7938 61.003V63.695C57.8799 64.5348 59.6495 66.2857 59.6495 68.2953C59.6495 71.1335 49.954 73.4318 37.9977 73.4318C26.0376 73.4318 16.3383 71.1335 16.3383 68.2953C16.3383 66.282 17.8268 64.5386 24.9616 63.695V61.003C13.114 62.0303 8 64.9023 8 68.2953C7.9925 72.5507 21.4298 76 37.9939 76C54.5543 76 67.9878 72.5507 67.9878 68.2991C67.9878 64.9135 62.5964 62.0378 50.7938 60.9993V61.003Z" fill="white"/>
<path d="M60.2073 44.5232C59.1996 50.274 54.1301 54.6408 48.0267 54.6408H27.4247C21.2975 54.6408 16.2089 50.2335 15.2346 44.447C14.9626 44.4684 14.689 44.4359 14.4296 44.3512C14.1702 44.2666 13.9301 44.1315 13.7231 43.9537C13.5161 43.7759 13.3462 43.559 13.2234 43.3153C13.1005 43.0717 13.027 42.8061 13.0071 42.534C13 42.4744 13 42.4173 13 42.3601V34.3175C13 33.1621 13.9172 32.2211 15.0631 32.2211C15.0631 25.4721 20.5995 20 27.4271 20H48.0338C54.8615 20 60.3955 25.4721 60.3955 32.2235V32.5213C60.6567 32.4463 60.9302 32.4239 61.2002 32.4553C61.4701 32.4867 61.7312 32.5713 61.9682 32.7042C62.2053 32.8371 62.4136 33.0157 62.5812 33.2297C62.7488 33.4436 62.8723 33.6887 62.9445 33.9506C63.0041 34.1388 63.0279 34.3294 63.0279 34.5272V42.565C63.0309 42.9034 62.9512 43.2375 62.7956 43.5381C62.6401 43.8388 62.4134 44.0968 62.1353 44.2898C61.8573 44.4829 61.5363 44.605 61.2003 44.6457C60.8642 44.6864 60.5234 44.6443 60.2073 44.5232ZM27.4676 25.0457C25.5631 25.0406 23.7345 25.7922 22.384 27.1351C21.0335 28.478 20.2716 30.3023 20.266 32.2068V42.4339C20.2688 43.3777 20.4575 44.3116 20.8213 45.1824C21.1851 46.0532 21.717 46.8438 22.3864 47.5091C23.0558 48.1743 23.8497 48.7011 24.7228 49.0594C25.5959 49.4178 26.531 49.6006 27.4747 49.5975H48.0577C52.0361 49.5975 55.2688 46.3885 55.2688 42.4339V32.2068C55.2688 28.2522 52.0361 25.0457 48.0577 25.0457H27.4676ZM30.5812 30.2581C32.2703 30.2581 33.6353 31.666 33.6353 33.4051V38.882C33.6353 40.621 32.2703 42.029 30.5812 42.029C28.8946 42.029 27.5272 40.621 27.5272 38.882V33.4051C27.5272 31.666 28.8946 30.2581 30.5812 30.2581ZM44.9464 30.2581C46.6331 30.2581 48.0005 31.6541 48.0005 33.3789V38.8129C48.0481 40.54 46.7212 41.9789 45.0345 42.029C43.3455 42.0766 41.94 40.7187 41.8899 38.9939V33.3813C41.8899 31.6541 43.2574 30.2581 44.9464 30.2581Z" fill="white"/>
<rect x="33" y="59" width="10" height="10" rx="5" fill="white"/>
</g>
</g>
<defs>
<filter id="filter0_d_10_169" x="0" y="10" width="241" height="80" filterUnits="userSpaceOnUse" color-interpolation-filters="sRGB">
<feFlood flood-opacity="0" result="BackgroundImageFix"/>
<feColorMatrix in="SourceAlpha" type="matrix" values="0 0 0 0 0 0 0 0 0 0 0 0 0 0 0 0 0 0 127 0" result="hardAlpha"/>
<feOffset dx="2" dy="4"/>
<feGaussianBlur stdDeviation="5"/>
<feComposite in2="hardAlpha" operator="out"/>
<feColorMatrix type="matrix" values="0 0 0 0 0 0 0 0 0 0 0 0 0 0 0 0 0 0 0.4 0"/>
<feBlend mode="normal" in2="BackgroundImageFix" result="effect1_dropShadow_10_169"/>
<feBlend mode="normal" in="SourceGraphic" in2="effect1_dropShadow_10_169" result="shape"/>
</filter>
<clipPath id="clip0_10_169">
<rect width="60" height="60" fill="white" transform="translate(8 16)"/>
</clipPath>
</defs>
</svg>
