<?xml version="1.0" encoding="utf-8"?>
<!-- Generator: $$$/GeneralStr/196=Adobe Illustrator 27.6.0, SVG Export Plug-In . SVG Version: 6.00 Build 0)  -->
<svg version="1.1" id="图层_1" xmlns="http://www.w3.org/2000/svg" xmlns:xlink="http://www.w3.org/1999/xlink" x="0px" y="0px"
	 viewBox="0 0 1024 1024" style="enable-background:new 0 0 1024 1024;" xml:space="preserve">
<style type="text/css">
	.st0{fill:#3A3A3A;}
	.st1{opacity:0.5;}
	.st2{opacity:0.5;fill:#3A3A3A;}
	.st3{opacity:0.2;fill:#3A3A3A;}
</style>
<g id="Symbols">
	<g id="info_x2F_問號">
		<g id="Group">
			<path id="Shape" class="st0" d="M7,0"/>
		</g>
	</g>
</g>
<g id="Symbols_00000098906943553271624320000016773545929366319239_" class="st1">
	<g id="Icon_x2F_sort_x5F_1-Copy">
		<g id="Group_00000070084879896225199120000003556666569209902237_" transform="translate(0.017187, 0.028906)">
			<g id="Symbols_00000013903942777431802050000014008692128776307382_">
				<g id="Icon_x2F_sort_x5F_1">
					<g id="Group_00000032647748515345942980000009315644136712867513_" transform="translate(0.017187, 0.028906)">
						<path id="Path" class="st2" d="M543.7,299.8c12-12,12-32.5,0-44.5L299.1,9.1c-12-12-32.5-12-44.5,0L10.1,255.4
							c-12,12-12,32.5,0,44.5l44.5,44.5c12,12,32.5,12,44.5,0l77-77c12-12,35.9-3.4,35.9,15.4v451.6c0,17.1,15.4,32.5,32.5,32.5
							h63.3c17.1,0,32.5-17.1,32.5-32.5V282.7c0-18.8,23.9-27.4,35.9-15.4l77,77c12,12,32.5,12,44.5,0L543.7,299.8z"/>
						<path id="Path_00000018196933253954615490000006232079026862072969_" class="st3" d="M1012.4,725.7L967.9,683
							c-12-12-32.5-12-44.5,0l-77,77c-12,12-35.9,3.4-35.9-15.4v-455c0-17.1-15.4-32.5-32.5-32.5h-63.3c-17.1,0-32.5,17.1-32.5,32.5
							v451.6c0,18.8-23.9,27.4-35.9,15.4l-77-77c-12-12-32.5-12-44.5,0l-44.5,46.2c-12,12-12,32.5,0,44.5L725,1014.8
							c12,12,32.5,12,44.5,0l244.6-244.6C1026.1,758.2,1026.1,736,1012.4,725.7L1012.4,725.7z"/>
					</g>
				</g>
			</g>
		</g>
	</g>
</g>
</svg>
