<?xml version="1.0" encoding="utf-8"?>
<!-- Generator: $$$/GeneralStr/196=Adobe Illustrator 27.6.0, SVG Export Plug-In . SVG Version: 6.00 Build 0)  -->
<svg version="1.1" id="图层_1" xmlns="http://www.w3.org/2000/svg" xmlns:xlink="http://www.w3.org/1999/xlink" x="0px" y="0px"
	 viewBox="0 0 1024 1024" style="enable-background:new 0 0 1024 1024;" xml:space="preserve">
<style type="text/css">
	.st0{opacity:0;}
	.st1{fill-rule:evenodd;clip-rule:evenodd;fill:#D8D8D8;}
	.st2{fill:#3A3A3A;}
</style>
<g id="plus_00000151538196769607711410000013928135606162289853_">
	<g id="Rectangle">
		<g class="st0">
			<path class="st1" d="M512,25.7L512,25.7c268.6,0,486.3,217.7,486.3,486.3l0,0c0,268.6-217.7,486.3-486.3,486.3l0,0
				C243.4,998.3,25.7,780.6,25.7,512l0,0C25.7,243.4,243.4,25.7,512,25.7z"/>
		</g>
		<g>
			<path class="st2" d="M512,1023.9C229.8,1023.9,0.1,794.3,0.1,512C0.1,229.8,229.8,0.1,512,0.1c282.3,0,511.9,229.6,511.9,511.9
				C1023.9,794.3,794.3,1023.9,512,1023.9z M512,51.3C258,51.3,51.3,258,51.3,512C51.3,766,258,972.7,512,972.7
				c254,0,460.7-206.6,460.7-460.7C972.7,258,766,51.3,512,51.3z"/>
		</g>
	</g>
	<g id="Group" transform="translate(7.500000, 7.500000)">
		<g id="plus" transform="translate(0.014576, 0.014576)">
			<path id="Path" class="st2" d="M726.5,471.9h-191v-191c0-17.6-14.3-31.8-31.8-31.8s-31.8,14.3-31.8,31.8v191h-191
				c-17.6,0-31.8,14.3-31.8,31.8s14.3,31.8,31.8,31.8h191v191c0,17.6,14.3,31.8,31.8,31.8s31.8-14.3,31.8-31.8v-191h191
				c17.6,0,31.8-14.3,31.8-31.8S744.1,471.9,726.5,471.9L726.5,471.9z"/>
		</g>
	</g>
</g>
</svg>
