<svg width="241" height="80" viewBox="0 0 241 80" fill="none" xmlns="http://www.w3.org/2000/svg">
<g filter="url(#filter0_d_10_160)">
<path fill-rule="evenodd" clip-rule="evenodd" d="M113.52 50.864C115.288 51.408 117.079 51.68 118.892 51.68C120.161 51.68 121.272 51.5893 122.224 51.408C123.176 51.272 123.856 51.136 124.264 51L125.624 45.492C125.488 45.492 125.012 45.4693 124.196 45.424C123.38 45.3787 122.337 45.1747 121.068 44.812C119.799 44.4493 118.348 43.792 116.716 42.84C116.263 42.568 115.628 42.1147 114.812 41.48C113.996 40.8453 113.089 40.1427 112.092 39.372C111.14 38.6013 110.211 37.8987 109.304 37.264C108.397 36.584 107.649 36.0853 107.06 35.768C109.372 35.632 111.231 35.156 112.636 34.34C114.087 33.524 115.197 32.5267 115.968 31.348C116.739 30.1693 117.26 28.968 117.532 27.744C117.804 26.52 117.94 25.4093 117.94 24.412V23.12C117.94 21.8507 117.827 20.5133 117.6 19.108C117.373 17.7027 116.852 16.388 116.036 15.164C115.265 13.8947 114.041 12.8747 112.364 12.104C110.732 11.3333 108.465 10.948 105.564 10.948H75.44L76.12 16.456V51H85.096V35.836H87.204C90.7853 35.836 93.7547 36.312 96.112 37.264C98.5147 38.216 100.713 39.712 102.708 41.752L107.604 46.648C109.825 48.8693 111.797 50.2747 113.52 50.864ZM99.92 29.58C98.56 29.6253 97.0187 29.648 95.296 29.648C93.8453 29.648 92.2813 29.6253 90.604 29.58C88.9267 29.5347 87.0907 29.444 85.096 29.308V17.476H103.66C105.655 17.476 107.037 17.9747 107.808 18.972C108.579 19.9693 108.964 21.1933 108.964 22.644V24.208C108.964 25.6133 108.556 26.7693 107.74 27.676C106.969 28.5373 105.587 29.0813 103.592 29.308C102.504 29.3987 101.28 29.4893 99.92 29.58ZM132.432 16.456V51H141.409V38.012C142.632 38.1027 144.468 38.216 146.917 38.352C149.41 38.488 152.085 38.556 154.941 38.556H161.877C164.506 38.556 166.637 38.1707 168.269 37.4C169.901 36.584 171.147 35.5867 172.009 34.408C172.87 33.184 173.459 31.9373 173.777 30.668C174.094 29.3533 174.253 28.1747 174.253 27.132V23.12C174.253 21.8507 174.139 20.5133 173.913 19.108C173.686 17.7027 173.165 16.388 172.349 15.164C171.578 13.8947 170.354 12.8747 168.676 12.104C167.045 11.3333 164.778 10.948 161.877 10.948H131.752L132.432 16.456ZM159.905 32.028H141.409V17.476H159.973C161.967 17.476 163.35 17.9747 164.121 18.972C164.891 19.9693 165.277 21.1933 165.277 22.644V26.928C165.277 28.3333 164.891 29.5347 164.121 30.532C163.35 31.5293 161.945 32.028 159.905 32.028ZM194.182 11.016L174.258 51H184.186L188.606 42.364H212.95L216.962 51H227.434L207.578 11.016H194.182ZM210.434 35.7H191.054L200.438 17.136H201.118L210.434 35.7ZM76 63H229V60H76V63Z" fill="url(#paint0_linear_10_160)"/>
<path fill-rule="evenodd" clip-rule="evenodd" d="M60.2073 34.5232C59.1996 40.274 54.1301 44.6408 48.0267 44.6408H27.4247C21.2975 44.6408 16.2089 40.2335 15.2346 34.447C14.9626 34.4684 14.689 34.4359 14.4296 34.3512C14.1702 34.2666 13.9301 34.1315 13.7231 33.9537C13.5161 33.7759 13.3462 33.559 13.2234 33.3153C13.1005 33.0717 13.027 32.8061 13.0071 32.534C13 32.4744 13 32.4173 13 32.3601V24.3175C13 23.1621 13.9172 22.2211 15.0631 22.2211C15.0631 15.4721 20.5995 10 27.4271 10H48.0338C54.8615 10 60.3955 15.4721 60.3955 22.2235V22.5213C60.6567 22.4463 60.9302 22.4239 61.2002 22.4553C61.4701 22.4867 61.7312 22.5713 61.9682 22.7042C62.2053 22.8371 62.4136 23.0157 62.5812 23.2297C62.7488 23.4436 62.8723 23.6887 62.9445 23.9506C63.0041 24.1388 63.0279 24.3294 63.0279 24.5272V32.565C63.0309 32.9034 62.9512 33.2375 62.7956 33.5381C62.6401 33.8388 62.4134 34.0968 62.1353 34.2898C61.8573 34.4829 61.5363 34.605 61.2003 34.6457C60.8642 34.6864 60.5234 34.6443 60.2073 34.5232ZM27.4676 15.0457C25.5631 15.0406 23.7345 15.7922 22.384 17.1351C21.0335 18.478 20.2716 20.3023 20.266 22.2068V32.4339C20.2688 33.3777 20.4575 34.3116 20.8213 35.1824C21.1851 36.0532 21.717 36.8438 22.3864 37.5091C23.0558 38.1743 23.8497 38.7011 24.7228 39.0594C25.5959 39.4178 26.531 39.6006 27.4747 39.5975H48.0577C52.0361 39.5975 55.2688 36.3885 55.2688 32.4339V22.2068C55.2688 18.2522 52.0361 15.0457 48.0577 15.0457H27.4676ZM30.5812 20.2581C32.2703 20.2581 33.6353 21.666 33.6353 23.4051V28.882C33.6353 30.621 32.2703 32.029 30.5812 32.029C28.8946 32.029 27.5272 30.621 27.5272 28.882V23.4051C27.5272 21.666 28.8946 20.2581 30.5812 20.2581ZM44.9464 20.2581C46.6331 20.2581 48.0005 21.6541 48.0005 23.3789V28.8129C48.0481 30.54 46.7212 31.9789 45.0345 32.029C43.3455 32.0766 41.94 30.7187 41.8899 28.9939V23.3813C41.8899 21.6541 43.2574 20.2581 44.9464 20.2581ZM50.7938 51.003V53.695C57.8799 54.5348 59.6495 56.2857 59.6495 58.2953C59.6495 61.1335 49.954 63.4318 37.9977 63.4318C26.0376 63.4318 16.3383 61.1335 16.3383 58.2953C16.3383 56.282 17.8268 54.5386 24.9616 53.695V51.003C13.114 52.0303 8 54.9023 8 58.2953C7.9925 62.5507 21.4298 66 37.9939 66C54.5543 66 67.9878 62.5507 67.9878 58.2991C67.9878 54.9135 62.5964 52.0378 50.7938 50.9993V51.003ZM38 49C35.2386 49 33 51.2386 33 54C33 56.7614 35.2386 59 38 59C40.7614 59 43 56.7614 43 54C43 51.2386 40.7614 49 38 49Z" fill="url(#paint1_linear_10_160)"/>
</g>
<defs>
<filter id="filter0_d_10_160" x="0" y="0" width="241" height="80" filterUnits="userSpaceOnUse" color-interpolation-filters="sRGB">
<feFlood flood-opacity="0" result="BackgroundImageFix"/>
<feColorMatrix in="SourceAlpha" type="matrix" values="0 0 0 0 0 0 0 0 0 0 0 0 0 0 0 0 0 0 127 0" result="hardAlpha"/>
<feOffset dx="2" dy="4"/>
<feGaussianBlur stdDeviation="5"/>
<feComposite in2="hardAlpha" operator="out"/>
<feColorMatrix type="matrix" values="0 0 0 0 0 0 0 0 0 0 0 0 0 0 0 0 0 0 0.4 0"/>
<feBlend mode="normal" in2="BackgroundImageFix" result="effect1_dropShadow_10_160"/>
<feBlend mode="normal" in="SourceGraphic" in2="effect1_dropShadow_10_160" result="shape"/>
</filter>
<linearGradient id="paint0_linear_10_160" x1="152.22" y1="10.948" x2="152.22" y2="63" gradientUnits="userSpaceOnUse">
<stop stop-color="#06A3FC"/>
<stop offset="1" stop-color="#6E3AFF"/>
</linearGradient>
<linearGradient id="paint1_linear_10_160" x1="37.9939" y1="10" x2="37.9939" y2="66" gradientUnits="userSpaceOnUse">
<stop stop-color="#06A3FC"/>
<stop offset="1" stop-color="#6E3AFF"/>
</linearGradient>
</defs>
</svg>
